2 Twitter data extraction | Working With Twitter Data in R
…
## 
Downloading [=======>---------------------------------]  20%
Downloading [===========>-----------------------------]  30%
Downloading [===============>-------------------------]  40%
Downloading [===================>---------------------]  50%
Downloading [========================>----------------]  60%
Downloading [============================>------------]  70%
Downloading [================================>--------]  80%
Downloading [====================================>----]  90%
Downloading [=========================================] 100%

# Print contents of "student_debt_tweets" object; contains tweets and various information
student_debt_tweets_hashtag

## # A tibble: 956 x 90
##    user_id status_id created_at          screen_name text  source display_text_wi… reply_to_status…
##    <chr>   <chr>     <dttm>              <chr>       <chr> <chr>             <dbl> <chr>           
##  1 819019… 14875891… 2022-01-30 00:51:13 5731965i    "NOT… Twitt…              148 <NA>            
##  2 139222… 14875890… 2022-01-30 00:50:31 HolmanMerr… "@Ec… Twitt…              208 148740297456560…
##  3 139222… 14874821… 2022-01-29 17:45:54 HolmanMerr… "@PO… Twitt…              261 148711396682863…
##  4 139222… 14872098… 2022-01-28 23:43:53 HolmanMerr… "I f… Twitt…              276 <NA>            
##  5 139222… 14874847… 2022-01-29 17:56:10 HolmanMerr… "@PO… Twitt…              228 <NA>            
##  6 777623… 14875835… 2022-01-30 00:28:39 OffDutyNin… "@Se… Twitt…              176 148751589561423…
##  7 777623… 14872272… 2022-01-29 00:52:51 OffDutyNin… "@St… Twitt…               86 148711548107294…
##  8 777623… 14871975… 2022-01-28 22:55:01 OffDutyNin… "@Se… Twitt…               64 148717683658927…
##  9 777623… 14869387… 2022-01-28 05:46:50 OffDutyNin… "@Wh… Twitt…              254 148670948035195…
## 10 777623… 14872954… 2022-01-29 05:24:03 OffDutyNin… "@ra… Twitt…               26 148713030291700…
## # … with 946 more rows, and 82 more variables: reply_to_user_id <chr>, reply_to_screen_name <chr>,
## #   is_quote <lgl>, is_retweet <lgl>, favorite_count <int>, retweet_count <int>, quote_count <int>,
## #   reply_count <int>, hashtags <list>, symbols <list>, urls_url <list>, urls_t.co <list>,
## #   urls_expanded_url <list>, media_url <list>, media_t.co <list>, media_expanded_url <list>, media_type <list>,
## #   ext_media_url <list>, ext_media_t.co <list>, ext_media_expanded_url <list>, ext_media_type <chr>,
## #   mentions_user_id <list>, mentions_screen_name <list>, lang <chr>, quoted_status_id <chr>, quoted_text <chr>,
## #   quoted_created_at <dttm>, quoted_source <chr>, quoted_favorite_count <int>, quoted_retweet_count <int>,
## #   quoted_user_id <chr>, quoted_screen_name <chr>, quoted_name <chr>, quoted_followers_count <int>,
## #   quoted_friends_count <int>, quoted_statuses_count <int>, quoted_location <chr>, quoted_description <chr>,
…
# Pull tweets with "#CancelStudentDebt" AND "biden"; returns 1000 most recent tweets; time by GMT
student_debt_biden_tweets<-search_tweets(q="#CancelStudentDebt AND biden", 
                                              n=1000,
                                              include_rts=FALSE,
                                              `-filter`="replies",
                                              lang="en")

## Downloading [=======>---------------------------------] 20% Downloading
## [===========>-----------------------------] 30% Downloading [===============>-------------------------] 40%
## Downloading [===================>---------------------] 50%

student_debt_biden_tweets

## # A tibble: 374 x 90
##    user_id status_id created_at          screen_name text  source display_text_wi… reply_to_status…
##    <chr>   <chr>     <dttm>              <chr>       <chr> <chr>             <dbl> <chr>           
##  1 146874… 14875787… 2022-01-30 00:09:39 FranAgu425… 😠Did… Twitt…              246 <NA>            
##  2 935906… 14875752… 2022-01-29 23:55:40 LovelyMsNet @Sec… Twitt…              261 148757050270100…
##  3 935906… 14871379… 2022-01-28 18:58:19 LovelyMsNet @Deb… Twitt…              260 148713417709901…
##  4 935906… 14872222… 2022-01-29 00:32:58 LovelyMsNet @Sen… Twitt…              256 148717683658927…
##  5 935906… 14868952… 2022-01-28 02:53:37 LovelyMsNet Ron … Twitt…              253 <NA>            
##  6 935906… 14868869… 2022-01-28 02:20:50 LovelyMsNet @Rep… Twitt…              265 148674581939076…
##  7 935906… 14871890… 2022-01-28 22:21:04 LovelyMsNet @Sec… Twitt…              259 148718625113661…
##  8 935906… 14861218… 2022-01-25 23:40:23 LovelyMsNet Soun… Twitt…              256 <NA>            
##  9 935906… 14871641… 2022-01-28 20:42:13 LovelyMsNet @RBR… Twitt…              254 148711903100607…
## 10 935906… 14868779… 2022-01-28 01:45:04 LovelyMsNet @Deb… Twitt…              249 148682634858892…
## # … with 364 more rows, and 82 more variables: reply_to_user_id <chr>, reply_to_screen_name <chr>,
## #   is_quote <lgl>, is_retweet <lgl>, favorite_count <int>, retweet_count <int>, quote_count <int>,
## #   reply_count <int>, hashtags <list>, symbols <list>, urls_url <list>, urls_t.co <list>,
## #   urls_expanded_url <list>, media_url <list>, media_t.co <list>, media_expanded_url <list>, media_type <list>,
## #   ext_media_url <list>, ext_media_t.co <list>, ext_media_expanded_url <list>, ext_media_type <chr>,
## #   mentions_user_id <list>, mentions_screen_name <list>, lang <chr>, quoted_status_id <chr>, quoted_text <chr>,
## #   quoted_created_at <dttm>, quoted_source <chr>, quoted_favorite_count <int>, quoted_retweet_count <int>,
## #   quoted_user_id <chr>, quoted_screen_name <chr>, quoted_name <chr>, quoted_followers_count <int>,
## #   quoted_friends_count <int>, quoted_statuses_count <int>, quoted_location <chr>, quoted_description <chr>,
…
2.1.4 Extract tweets from a specific twitter handle

# # Pull tweets from an account (doesn't have same time constraints)
# Pull last 3200 BLM tweets (note sometimes the query will return less than 3200 due to deletions)
blm_tweets<-get_timeline("@Blklivesmatter", n=3200)

blm_tweets

## # A tibble: 3,182 x 90
##    user_id status_id created_at          screen_name text  source display_text_wi… reply_to_status…
##    <chr>   <chr>     <dttm>              <chr>       <chr> <chr>             <dbl> <chr>           
##  1 160493… 14868846… 2022-01-28 02:11:37 Blklivesma… "\"O… Twitt…              140 <NA>            
##  2 160493… 14868593… 2022-01-28 00:31:03 Blklivesma… "⏰ H… Twitt…              276 <NA>            
##  3 160493… 14868198… 2022-01-27 21:53:59 Blklivesma… "Are… Twitt…               27 <NA>            
##  4 160493… 14864968… 2022-01-27 00:30:50 Blklivesma… "@am… Twitt…               62 148648177607575…
##  5 160493… 14864664… 2022-01-26 22:30:01 Blklivesma… "🚨 S… Twitt…              140 <NA>            
##  6 160493… 14864514… 2022-01-26 21:30:11 Blklivesma… "The… Twitt…               64 <NA>            
##  7 160493… 14864473… 2022-01-26 21:14:03 Blklivesma… "We … Twitt…              269 <NA>            
##  8 160493… 14864282… 2022-01-26 19:58:16 Blklivesma… ".@P… Twitt…               78 <NA>            
##  9 160493… 14864273… 2022-01-26 19:54:38 Blklivesma… "We … Twitt…              223 <NA>            
## 10 160493… 14864267… 2022-01-26 19:52:04 Blklivesma… "We … Twitt…              167 <NA>            
## # … with 3,172 more rows, and 82 more variables: reply_to_user_id <chr>, reply_to_screen_name <chr>,
## #   is_quote <lgl>, is_retweet <lgl>, favorite_count <int>, retweet_count <int>, quote_count <int>,
## #   reply_count <int>, hashtags <list>, symbols <list>, urls_url <list>, urls_t.co <list>,
## #   urls_expanded_url <list>, media_url <list>, media_t.co <list>, media_expanded_url <list>, media_type <list>,
## #   ext_media_url <list>, ext_media_t.co <list>, ext_media_expanded_url <list>, ext_media_type <chr>,
## #   mentions_user_id <list>, mentions_screen_name <list>, lang <chr>, quoted_status_id <chr>, quoted_text <chr>,
## #   quoted_created_at <dttm>, quoted_source <chr>, quoted_favorite_count <int>, quoted_retweet_count <int>,
## #   quoted_user_id <chr>, quoted_screen_name <chr>, quoted_name <chr>, quoted_followers_count <int>,
## #   quoted_friends_count <int>, quoted_statuses_count <int>, quoted_location <chr>, quoted_description <chr>,
…
